id,dam,sire,fitness,generation
1,0,0,0.7000000000,0
2,0,0,1.0000000000,0
3,0,0,1.0000000000,0
4,0,0,0.7000000000,0
5,0,0,0.7000000000,0
6,0,0,1.0000000000,0
7,0,0,1.0000000000,0
8,0,0,1.0000000000,0
9,0,0,1.0000000000,0
10,0,0,1.0000000000,0
11,10,1,1.0000000000,1
12,10,3,1.0000000000,1
13,6,6,0.2401000000,1
14,9,2,1.0000000000,1
15,10,6,0.7000000000,1
16,9,4,1.0000000000,1
17,8,2,1.0000000000,1
18,7,3,1.0000000000,1
19,4,3,1.0000000000,1
20,7,9,0.4900000000,1
21,19,16,1.0000000000,2
22,16,12,0.7000000000,2
23,16,19,0.3430000000,2
24,12,18,0.7000000000,2
25,17,14,0.4900000000,2
26,13,17,0.4900000000,2
27,16,18,1.0000000000,2
28,19,20,1.0000000000,2
29,17,12,1.0000000000,2
30,13,12,0.7000000000,2
31,23,24,0.7000000000,3
32,28,24,0.3430000000,3
33,26,23,1.0000000000,3
34,29,22,0.3430000000,3
35,26,23,1.0000000000,3
36,23,22,0.3430000000,3
37,26,26,0.0403536070,3
38,23,27,0.2401000000,3
39,27,26,1.0000000000,3
40,26,30,0.3430000000,3
41,31,36,0.7000000000,4
42,37,33,0.1680700000,4
43,37,33,0.2401000000,4
44,31,36,0.3430000000,4
45,32,39,0.7000000000,4
46,37,32,1.0000000000,4
47,36,37,1.0000000000,4
48,37,34,0.7000000000,4
49,31,31,0.1176490000,4
50,31,39,0.4900000000,4
51,46,43,0.2401000000,5
52,41,46,0.7000000000,5
53,44,45,0.4900000000,5
54,41,48,1.0000000000,5
55,44,41,0.4900000000,5
56,43,41,0.4900000000,5
57,41,45,0.7000000000,5
58,43,49,0.7000000000,5
59,49,44,0.1176490000,5
60,41,50,1.0000000000,5
61,56,57,0.7000000000,6
62,60,52,0.7000000000,6
63,52,59,0.4900000000,6
64,52,57,0.2401000000,6
65,54,51,0.3430000000,6
66,52,56,0.1680700000,6
67,53,53,0.0823543000,6
68,51,56,0.2401000000,6
69,56,57,0.2401000000,6
70,53,57,0.2401000000,6
71,66,70,0.3430000000,7
72,69,70,0.3430000000,7
73,64,65,0.3430000000,7
74,61,67,0.7000000000,7
75,68,61,0.1680700000,7
76,65,67,0.3430000000,7
77,62,65,0.2401000000,7
78,62,67,0.3430000000,7
79,66,67,0.3430000000,7
80,61,69,0.0823543000,7
81,75,79,0.1680700000,8
82,80,80,0.0576480100,8
83,76,75,0.2401000000,8
84,74,78,0.1680700000,8
85,72,76,0.2401000000,8
86,71,74,0.1176490000,8
87,71,74,0.1680700000,8
88,76,80,0.2401000000,8
89,72,72,0.0576480100,8
90,79,74,0.0403536070,8
91,83,89,0.1680700000,9
92,85,83,0.3430000000,9
93,86,81,0.2401000000,9
94,90,88,0.1680700000,9
95,82,88,0.0403536070,9
96,83,86,0.2401000000,9
97,88,82,0.2401000000,9
98,84,90,0.1176490000,9
99,86,82,0.4900000000,9
100,90,84,0.0576480100,9
101,94,97,0.3430000000,10
102,96,94,0.0403536070,10
103,97,95,0.0403536070,10
104,98,98,0.0823543000,10
105,100,94,0.1176490000,10
106,91,100,0.0823543000,10
107,93,91,0.1680700000,10
108,98,97,0.4900000000,10
109,99,96,0.4900000000,10
110,93,97,0.1680700000,10
111,109,106,0.2401000000,11
112,104,104,0.0403536070,11
113,101,102,0.2401000000,11
114,103,105,0.2401000000,11
115,109,102,0.1680700000,11
116,106,106,0.0403536070,11
117,102,107,0.1176490000,11
118,110,107,0.1176490000,11
119,104,104,0.0197732674,11
120,108,105,0.0823543000,11
121,113,117,0.0197732674,12
122,113,118,0.1680700000,12
123,117,117,0.0576480100,12
124,113,118,0.1680700000,12
125,116,120,0.0823543000,12
126,111,114,0.2401000000,12
127,116,114,0.1176490000,12
128,112,115,0.3430000000,12
129,115,113,0.1176490000,12
130,113,119,0.2401000000,12
131,128,128,0.0403536070,13
132,126,129,0.1680700000,13
133,126,129,0.3430000000,13
134,126,123,0.2401000000,13
135,130,125,0.0823543000,13
136,122,125,0.0576480100,13
137,127,124,0.0823543000,13
138,129,123,0.1176490000,13
139,129,125,0.4900000000,13
140,124,122,0.0197732674,13
141,137,139,0.1680700000,14
142,136,136,0.0138412872,14
143,139,133,0.3430000000,14
144,139,132,0.2401000000,14
145,134,133,0.4900000000,14
146,133,137,0.1176490000,14
147,140,140,0.0096889010,14
148,140,131,0.2401000000,14
149,139,139,0.1176490000,14
150,139,132,0.1176490000,14
151,150,142,0.1176490000,15
152,144,147,0.1680700000,15
153,146,146,0.0576480100,15
154,142,145,0.2401000000,15
155,148,144,0.2401000000,15
156,143,149,0.2401000000,15
157,144,145,0.2401000000,15
158,142,141,0.1176490000,15
159,141,143,0.1680700000,15
160,145,144,0.3430000000,15
161,156,152,0.1176490000,16
162,154,160,0.2401000000,16
163,156,153,0.1176490000,16
164,156,153,0.1176490000,16
165,155,157,0.2401000000,16
166,159,159,0.1176490000,16
167,155,159,0.1176490000,16
168,154,153,0.0823543000,16
169,159,152,0.1680700000,16
170,153,156,0.2401000000,16
171,164,163,0.1680700000,17
172,163,165,0.1176490000,17
173,166,167,0.0823543000,17
174,170,168,0.1680700000,17
175,169,168,0.0576480100,17
176,164,168,0.1176490000,17
177,167,170,0.0823543000,17
178,169,165,0.1680700000,17
179,170,162,0.2401000000,17
180,169,169,0.0282475249,17
181,179,180,0.0576480100,18
182,173,175,0.0823543000,18
183,179,180,0.1680700000,18
184,173,179,0.1680700000,18
185,176,176,0.0138412872,18
186,174,177,0.1680700000,18
187,177,177,0.0403536070,18
188,172,177,0.1176490000,18
189,176,171,0.1680700000,18
190,173,171,0.2401000000,18
191,183,184,0.1680700000,19
192,186,185,0.0823543000,19
193,186,189,0.2401000000,19
194,189,185,0.0576480100,19
195,187,181,0.1176490000,19
196,185,181,0.0823543000,19
197,190,184,0.1176490000,19
198,183,189,0.1680700000,19
199,190,184,0.1680700000,19
200,186,186,0.0823543000,19
201,196,192,0.1680700000,20
202,191,193,0.1680700000,20
203,200,197,0.1680700000,20
204,197,193,0.0823543000,20
205,195,196,0.0197732674,20
206,192,195,0.1680700000,20
207,192,192,0.0282475249,20
208,197,193,0.1680700000,20
209,196,192,0.0282475249,20
210,193,192,0.0576480100,20
211,203,209,0.1680700000,21
212,206,202,0.1680700000,21
213,201,208,0.0576480100,21
214,203,202,0.2401000000,21
215,210,207,0.0197732674,21
216,202,209,0.1680700000,21
217,201,201,0.0823543000,21
218,204,203,0.1680700000,21
219,201,209,0.0823543000,21
220,201,202,0.0823543000,21
221,217,211,0.2401000000,22
222,219,214,0.0823543000,22
223,219,211,0.0576480100,22
224,219,212,0.0576480100,22
225,220,211,0.1176490000,22
226,218,214,0.0823543000,22
227,215,213,0.0576480100,22
228,213,217,0.0576480100,22
229,215,220,0.0403536070,22
230,218,215,0.1176490000,22
231,228,229,0.0403536070,23
232,230,223,0.0403536070,23
233,221,221,0.0823543000,23
234,222,222,0.0823543000,23
235,221,221,0.1176490000,23
236,223,229,0.0576480100,23
237,230,229,0.0403536070,23
238,221,224,0.1176490000,23
239,226,226,0.0403536070,23
240,222,230,0.0403536070,23
241,233,236,0.0403536070,24
242,231,231,0.0138412872,24
243,240,234,0.0197732674,24
244,238,237,0.0576480100,24
245,238,238,0.0576480100,24
246,238,236,0.0576480100,24
247,239,240,0.0823543000,24
248,233,231,0.0576480100,24
249,231,236,0.0403536070,24
250,235,231,0.0823543000,24
251,245,246,0.0403536070,25
252,248,248,0.0403536070,25
253,243,243,0.0138412872,25
254,244,245,0.0403536070,25
255,243,248,0.0576480100,25
256,249,242,0.0282475249,25
257,245,248,0.0282475249,25
258,247,242,0.0576480100,25
259,249,250,0.0403536070,25
260,242,245,0.0403536070,25
261,260,251,0.0282475249,26
262,260,254,0.0282475249,26
263,258,257,0.0403536070,26
264,253,257,0.0282475249,26
265,254,251,0.0576480100,26
266,254,256,0.0576480100,26
267,259,254,0.0823543000,26
268,255,252,0.0197732674,26
269,255,257,0.0197732674,26
270,254,259,0.0823543000,26
271,265,262,0.0403536070,27
272,261,266,0.0403536070,27
273,269,266,0.0138412872,27
274,262,262,0.0138412872,27
275,270,269,0.0576480100,27
276,267,264,0.0576480100,27
277,262,269,0.0282475249,27
278,265,261,0.0138412872,27
279,263,261,0.0403536070,27
280,261,264,0.0403536070,27
281,278,272,0.0197732674,28
282,271,273,0.0282475249,28
283,277,280,0.0282475249,28
284,276,271,0.0282475249,28
285,276,276,0.0282475249,28
286,280,274,0.0282475249,28
287,272,279,0.0282475249,28
288,277,275,0.0282475249,28
289,277,276,0.0282475249,28
290,279,276,0.1680700000,28
291,289,284,0.0403536070,29
292,287,286,0.0282475249,29
293,287,286,0.0282475249,29
294,289,290,0.0403536070,29
295,287,281,0.0197732674,29
296,282,287,0.0403536070,29
297,290,289,0.0576480100,29
298,281,283,0.0403536070,29
299,282,281,0.0282475249,29
300,281,289,0.0197732674,29
301,300,294,0.0282475249,30
302,296,295,0.0197732674,30
303,294,293,0.0197732674,30
304,298,296,0.0282475249,30
305,295,299,0.0138412872,30
306,296,293,0.0403536070,30
307,295,293,0.0282475249,30
308,292,297,0.0403536070,30
309,294,295,0.0282475249,30
310,300,293,0.0282475249,30
311,302,309,0.0282475249,31
312,303,303,0.0096889010,31
313,301,302,0.0403536070,31
314,306,304,0.0282475249,31
315,310,304,0.0823543000,31
316,302,302,0.0197732674,31
317,305,307,0.0197732674,31
318,304,301,0.0403536070,31
319,302,309,0.0403536070,31
320,306,305,0.0197732674,31
321,312,319,0.0282475249,32
322,313,319,0.0576480100,32
323,315,320,0.0138412872,32
324,318,311,0.0197732674,32
325,313,320,0.0282475249,32
326,319,314,0.0403536070,32
327,312,315,0.0197732674,32
328,314,319,0.0403536070,32
329,314,312,0.0403536070,32
330,319,318,0.0576480100,32
331,327,329,0.0138412872,33
332,327,326,0.0403536070,33
333,330,326,0.0403536070,33
334,321,323,0.0282475249,33
335,328,323,0.0282475249,33
336,328,324,0.0197732674,33
337,328,329,0.0403536070,33
338,323,324,0.0282475249,33
339,321,329,0.0282475249,33
340,325,330,0.0403536070,33
341,339,336,0.0403536070,34
342,340,331,0.0282475249,34
343,340,332,0.0576480100,34
344,339,331,0.0282475249,34
345,338,334,0.0282475249,34
346,334,335,0.0197732674,34
347,340,331,0.0282475249,34
348,333,331,0.0403536070,34
349,337,335,0.0282475249,34
350,338,332,0.0197732674,34
351,349,350,0.0282475249,35
352,347,343,0.0197732674,35
353,343,343,0.0403536070,35
354,341,344,0.0197732674,35
355,349,341,0.0282475249,35
356,347,344,0.0403536070,35
357,343,346,0.0282475249,35
358,345,345,0.0096889010,35
359,350,343,0.0197732674,35
360,350,341,0.0197732674,35
361,352,356,0.0282475249,36
362,351,359,0.0403536070,36
363,352,359,0.0138412872,36
364,353,356,0.0403536070,36
365,359,357,0.0282475249,36
366,351,351,0.0197732674,36
367,360,358,0.0138412872,36
368,355,352,0.0197732674,36
369,360,354,0.0138412872,36
370,360,352,0.0197732674,36
371,369,361,0.0282475249,37
372,369,363,0.0197732674,37
373,364,361,0.0576480100,37
374,367,363,0.0096889010,37
375,367,370,0.0138412872,37
376,363,361,0.0282475249,37
377,368,369,0.0197732674,37
378,367,365,0.0282475249,37
379,362,369,0.0138412872,37
380,369,364,0.0403536070,37
381,374,374,0.0096889010,38
382,378,379,0.0197732674,38
383,373,372,0.0403536070,38
384,373,380,0.0576480100,38
385,376,373,0.0282475249,38
386,373,378,0.0403536070,38
387,375,377,0.0197732674,38
388,372,371,0.0138412872,38
389,380,378,0.0403536070,38
390,379,372,0.0282475249,38
391,387,381,0.0197732674,39
392,389,385,0.0403536070,39
393,384,387,0.0576480100,39
394,387,381,0.0138412872,39
395,383,388,0.0197732674,39
396,390,388,0.0197732674,39
397,388,384,0.0403536070,39
398,387,385,0.0197732674,39
399,387,383,0.0197732674,39
400,384,382,0.0576480100,39
401,391,395,0.0138412872,40
402,392,392,0.0403536070,40
403,396,391,0.0197732674,40
404,399,399,0.0138412872,40
405,396,400,0.0282475249,40
406,397,393,0.0403536070,40
407,399,398,0.0282475249,40
408,391,394,0.0138412872,40
409,391,396,0.0282475249,40
410,400,396,0.0282475249,40
411,409,406,0.0282475249,41
412,408,406,0.0403536070,41
413,401,402,0.0197732674,41
414,409,402,0.0403536070,41
415,410,405,0.0197732674,41
416,402,407,0.0282475249,41
417,403,410,0.0282475249,41
418,401,408,0.0138412872,41
419,402,410,0.0197732674,41
420,406,406,0.0403536070,41
421,420,414,0.0576480100,42
422,418,420,0.0576480100,42
423,414,412,0.0197732674,42
424,415,416,0.0197732674,42
425,416,413,0.0138412872,42
426,414,420,0.0576480100,42
427,419,414,0.0138412872,42
428,419,417,0.0282475249,42
429,420,413,0.0403536070,42
430,411,418,0.0282475249,42
431,424,429,0.0197732674,43
432,424,421,0.0282475249,43
433,421,427,0.0403536070,43
434,421,425,0.0576480100,43
435,425,424,0.0197732674,43
436,423,427,0.0197732674,43
437,423,422,0.0282475249,43
438,424,422,0.0403536070,43
439,422,427,0.0403536070,43
440,429,426,0.0403536070,43
441,433,435,0.0403536070,44
442,436,433,0.0403536070,44
443,437,432,0.0197732674,44
444,434,434,0.0403536070,44
445,439,431,0.0282475249,44
446,437,434,0.0403536070,44
447,437,434,0.0282475249,44
448,433,435,0.0282475249,44
449,433,439,0.0403536070,44
450,434,431,0.0282475249,44
451,448,441,0.0403536070,45
452,450,442,0.0403536070,45
453,447,445,0.0197732674,45
454,448,445,0.0282475249,45
455,448,450,0.0197732674,45
456,447,448,0.0282475249,45
457,444,450,0.0282475249,45
458,449,448,0.0403536070,45
459,444,443,0.0282475249,45
460,449,450,0.0282475249,45
461,459,457,0.0282475249,46
462,451,460,0.0282475249,46
463,457,457,0.0282475249,46
464,452,459,0.0403536070,46
465,459,454,0.0282475249,46
466,457,457,0.0197732674,46
467,452,458,0.0282475249,46
468,457,455,0.0282475249,46
469,452,456,0.0282475249,46
470,458,454,0.0282475249,46
471,461,466,0.0282475249,47
472,467,463,0.0576480100,47
473,464,463,0.0282475249,47
474,467,464,0.0403536070,47
475,463,470,0.0403536070,47
476,466,463,0.0282475249,47
477,470,462,0.0197732674,47
478,465,467,0.0197732674,47
479,463,463,0.0282475249,47
480,467,466,0.0403536070,47
481,471,474,0.0403536070,48
482,479,475,0.0403536070,48
483,474,474,0.0197732674,48
484,472,474,0.0403536070,48
485,473,478,0.0282475249,48
486,473,472,0.0576480100,48
487,471,474,0.0282475249,48
488,475,477,0.0197732674,48
489,474,475,0.0403536070,48
490,474,477,0.0197732674,48
491,487,490,0.0197732674,49
492,488,490,0.0197732674,49
493,484,484,0.0403536070,49
494,489,489,0.0403536070,49
495,489,484,0.0282475249,49
496,485,490,0.0282475249,49
497,488,489,0.0282475249,49
498,484,489,0.0403536070,49
499,490,483,0.0138412872,49
500,484,483,0.0282475249,49
501,499,498,0.0282475249,50
502,492,493,0.0282475249,50
503,496,499,0.0282475249,50
504,493,492,0.0403536070,50
505,499,492,0.0138412872,50
506,491,496,0.0282475249,50
507,491,495,0.0282475249,50
508,500,496,0.0576480100,50
509,500,500,0.0282475249,50
510,492,500,0.0282475249,50
